[
	{
		"name": "openraster-org",
		"repository": "documentation/openraster-org",
		"branch": "master",
		"cron": "",
		"type": "sphinx",
		"deploypath": "/srv/www/generated/openraster.org/"
	},
	{
		"name": "sysadmin-docs",
		"repository": "sysadmin/sysadmin-docs",
		"branch": "master",
		"cron": "",
		"type": "sphinx",
		"deploypath": "/srv/www/generated/sysadmin-docs.kde.org/"
	},
	{
		"name": "staging-digikam-org",
		"repository": "websites/digikam-org",
		"branch": "dev",
		"cron": "",
		"type": "hugo",
		"deploypath": "/srv/www/generated/staging.digikam.org/"
	},
	{
		"name": "rolisteam-org",
		"repository": "websites/rolisteam-org",
		"branch": "master",
		"cron": "",
		"type": "pelican",
		"deploypath": "/srv/www/generated/rolisteam.org/"
	},
	{
		"name": "doc-rolisteam-org",
		"repository": "websites/wiki-rolisteam-org",
		"branch": "master",
		"cron": "",
		"type": "pelican",
		"deploypath": "/srv/www/generated/doc.rolisteam.org/"
	},
	{
		"name": "qmlonline-kde-org",
		"repository": "webapps/qmlonline",
		"branch": "master",
		"cron": "",
		"type": "qtwebassembly",
		"deploypath": "/srv/www/generated/qmlonline.kde.org/"
	},
	{
		"name": "scripting-krita-org",
		"repository": "websites/scripting-krita-org",
		"branch": "master",
		"cron": "",
		"type": "reactjs",
		"deploypath": "/srv/www/generated/scripting.krita.org/"
	},
	{
		"name": "akademy-schedule-kde-org",
		"repository": "websites/akademy-schedule-kde-org",
		"branch": "master",
		"cron": "",
		"type": "akademy-schedule-kde-org",
		"deploypath": "/srv/www/generated/akademy-schedule.kde.org/"
	},
	{
		"name": "cdn-kde-org-aether-devel",
		"repository": "websites/aether-sass",
		"branch": "master",
		"cron": "",
		"type": "symfonyencore",
		"server": "cdn",
		"deploypath": "/srv/www/cdn.kde.org/aether-devel/"
	},
	{
		"name": "cdn-kde-org-breeze-icons",
		"repository": "frameworks/breeze-icons",
		"branch": "master",
		"cron": "",
		"type": "gruntjs",
		"server": "cdn",
		"deploypath": "/srv/www/cdn.kde.org/breeze-icons/"
	},
	{
		"name": "cdn-kde-org-screenshots",
		"repository": "websites/product-screenshots",
		"branch": "master",
		"cron": "",
		"type": "static-git",
		"server": "cdn",
		"deploypath": "/srv/www/cdn.kde.org/screenshots/"
	},
	{
		"name": "aether-drupal7-theme",
		"repository": "websites/aether-drupal7",
		"branch": "master",
		"cron": "",
		"type": "static-git",
		"server": "ampel",
		"deploypath": "/srv/www/drupal7/sites/all/themes/aether/"
	},
	{
		"name": "inqlude",
		"repository": "websites/inqlude",
		"branch": "master",
		"cron": "",
		"type": "inqlude",
		"deploypath": "/srv/www/generated/inqlude.org/"
	},
	{
		"name": "autoconfig-kde-org",
		"repository": "websites/autoconfig-kde-org",
		"branch": "master",
		"cron": "@daily",
		"type": "autoconfig-kde-org",
		"deploypath": "/srv/www/generated/autoconfig.kde.org/"
	},
	{
		"name": "docs-krita-org",
		"repository": "documentation/docs-krita-org",
		"branch": "krita/5.2",
		"cron": "",
		"type": "sphinx-app-docs",
		"deploylangs": "en de fr nl uk_UA zh_CN ca pt_PT ko ja pl it sl tr",
		"deploypath": "/srv/www/generated/docs.krita.org/"
	},
	{
		"name": "docs-kdenlive-org",
		"repository": "documentation/docs-kdenlive-org",
		"branch": "master",
		"cron": "",
		"type": "sphinx-app-docs",
		"deploylangs": "en de fr nl es tr da pt_BR ru uk_UA zh_CN zh_TW ja ko ca sk sv it sl cs pl",
		"deploypath": "/srv/www/generated/docs.kdenlive.org/"
	},
	{
		"name": "docs-digikam-org",
		"repository": "documentation/digikam-doc",
		"branch": "master",
		"cron": "",
		"type": "sphinx-app-docs",
		"deploylangs": "ca cs de en es fi fr it ja lt nl pt_PT sk sl uk_UA zh_CN",
		"deploypath": "/srv/www/generated/docs.digikam.org/"
	},
	{
		"name": "apps-kde-org",
		"repository": "websites/apps-kde-org",
		"branch": "master",
		"cron": "@daily",
		"type": "hugo",
		"deploypath": "/srv/www/generated/apps.kde.org/"
	},
	{
		"name": "kde-org",
		"repository": "websites/kde-org",
		"branch": "master",
		"cron": "@daily",
		"deploypath": "/srv/www/generated/www.kde.org/",
		"type": "hugo"
	},
	{
		"name": "www-staging-kde-org",
		"repository": "websites/kde-org",
		"branch": "work/staging",
		"cron": "",
		"deploypath": "/srv/www/generated/www-staging.kde.org/",
		"type": "hugo"
	},
	{
		"name": "akademy-dev-kde-org",
		"repository": "websites/akademy-kde-org",
		"branch": "master",
		"cron": "",
		"deploypath": "/srv/www/generated/akademy-dev.kde.org/",
		"type": "hugo"
	},
	{
		"name": "akademy-kde-org-splice",
		"repository": "websites/akademy-kde-org",
		"branch": "master",
		"cron": "",
		"deploypath": "/srv/www/generated/akademy.kde.org/",
		"server": "ampel",
		"type": "hugo"
	},
	{
		"name": "akademy-staging-kde-org",
		"repository": "websites/akademy-kde-org",
		"branch": "work/staging",
		"cron": "",
		"deploypath": "/srv/www/generated/akademy-staging.kde.org/",
		"type": "hugo"
	},
	{
		"name": "planet-kde-org",
		"repository": "websites/planet-kde-org",
		"branch": "master",
		"cron": "0 */2 * * *",
		"type": "hugo",
		"deploypath": "/srv/www/generated/planet.kde.org"
	},
	{
		"name": "develop-kde-org",
		"repository": "documentation/develop-kde-org",
		"branch": "master",
		"cron": "@daily",
		"type": "hugo",
		"deploypath": "/srv/www/generated/develop.kde.org/"
	},
	{
		"name": "atelier-kde-org",
		"repository": "websites/atelier-kde-org",
		"branch": "vue",
		"cron": "",
		"type": "vuetify",
		"deploypath": "/srv/www/generated/atelier.kde.org/"
	},
	{
		"name": "25for25-kde-org",
		"repository": "websites/25for25-kde-org",
		"branch": "master",
		"cron": "",
		"type": "quasar",
		"deploypath": "/srv/www/generated/25for25.kde.org/"
	}
]
